<svg xmlns="http://www.w3.org/2000/svg">


	<symbol id="grid_1" viewBox="0 0 55.131 58.949">
			<g>
			<path d="M28.873,27.969c-0.038-0.023-0.088-0.039-0.128-0.061c-0.18-0.077-0.355-0.157-0.532-0.238
				c-0.265-0.09-0.565-0.154-0.88-0.207v24.652H2.167v-32.5h17.308c-0.098-0.499-0.211-0.92-0.308-1.237
				c-0.027-0.076-0.048-0.154-0.074-0.231c-0.089-0.268-0.154-0.431-0.154-0.431l0.018,0.002c-0.141-0.48-0.251-0.969-0.339-1.464
				c-0.147,0.444-0.553,0.769-1.046,0.769h-4.975c-0.617,0-1.117-0.5-1.117-1.117s0.5-1.117,1.117-1.117h4.975
				c0.388,0,0.713,0.21,0.913,0.51c-0.04-0.392-0.067-0.786-0.067-1.186c0-0.621,0.057-1.231,0.145-1.833H3c-1.657,0-3,1.343-3,3
				v40.667c0,1.657,1.343,3,3,3h24.167c1.657,0,3-1.343,3-3V28.445c-0.438-0.151-0.871-0.31-1.292-0.486L28.873,27.969z
				M15.083,57.865c-1.15,0-2.083-0.933-2.083-2.083s0.933-2.083,2.083-2.083c1.15,0,2.083,0.933,2.083,2.083
				S16.233,57.865,15.083,57.865z"/>
			<path d="M37.658,0c-9.651,0-17.475,6.32-17.475,14.115c0,1.125,0.181,2.215,0.489,3.264l-0.016-0.002c0,0,0.059,0.148,0.139,0.391
				c0.023,0.069,0.042,0.14,0.067,0.209c0.472,1.545,1.371,5.801-1.661,9.197c0,0,6.867-1.799,9.855-0.781
				c0.16,0.073,0.319,0.146,0.481,0.215c0.036,0.02,0.082,0.034,0.116,0.055l0.002-0.009c2.399,1.001,5.115,1.576,8.001,1.576
				c9.65,0,17.474-6.32,17.474-14.115S47.308,0,37.658,0z M29.411,18.626c0,0.393-0.319,0.712-0.712,0.712
				c-0.394,0-0.713-0.319-0.713-0.712V9.763c0-0.393,0.319-0.712,0.713-0.712c0.393,0,0.712,0.319,0.712,0.712V18.626z
				M38.274,18.626c0,0.393-0.318,0.712-0.712,0.712c-0.393,0-0.712-0.319-0.712-0.712V9.763c0-0.393,0.319-0.712,0.712-0.712
				c0.394,0,0.712,0.319,0.712,0.712V18.626z M46.504,18.626c0,0.393-0.319,0.712-0.712,0.712s-0.712-0.319-0.712-0.712V9.763
				c0-0.393,0.319-0.712,0.712-0.712s0.712,0.319,0.712,0.712V18.626z"/>
		</g>
	</symbol>

	<symbol id="grid_3" viewBox="0 0 62.972 52.584">
		<path d="M53.001,0H9C7.896,0,7,0.896,7,2v31.167c0,1.104,0.896,2,2,2h44.001c1.104,0,2-0.896,2-2V2
			C55.001,0.896,54.105,0,53.001,0z M53.027,30.667H8.75v-28h44.277V30.667z"/>
		<path d="M62.944,50.584c0.22,1.25-0.896,2-2,2H2c-1.104,0-2-0.896-2-2L6,38c0.386-1.176,0.896-2,2-2h46.944
			c1.104,0,2,0.896,2,2L62.944,50.584z"/>
	</symbol>

	<symbol id="icon_call" viewBox="0 0 13.448 13.467">
		<g>
			<path d="M11.177,8.7c-0.281-0.278-0.77-0.284-1.05-0.007C9.885,8.928,9.708,9.179,9.549,9.399c-0.143,0.198-0.335,0.467-0.43,0.467
				c-0.862,0-2.225-0.811-3.47-2.061C4.402,6.555,3.599,5.188,3.599,4.326c0-0.097,0.253-0.287,0.457-0.441
				c0.218-0.168,0.469-0.356,0.703-0.61c0.272-0.293,0.266-0.75-0.019-1.034L2.717,0.212C2.445-0.06,1.973-0.072,1.686,0.187
				C0.528,1.225,0,2.672,0,3.579c-0.003,1.963,1.854,4.53,3.592,6.274c1.742,1.744,4.298,3.61,6.265,3.613h0.004
				c0.902,0,2.353-0.521,3.392-1.672c0.269-0.297,0.259-0.751-0.022-1.031L11.177,8.7z"/>
		</g>
	</symbol>

	<symbol id="icon_clock" viewBox="0 0 12.699 12.716">
		<g>
			<path d="M10.837,1.863C9.645,0.662,8.052,0,6.354,0S3.059,0.662,1.858,1.863C0.66,3.061,0,4.657,0,6.36
				c0,1.703,0.66,3.3,1.858,4.498c1.216,1.198,2.813,1.858,4.498,1.858c1.697,0,3.289-0.666,4.48-1.874
				c1.198-1.191,1.859-2.78,1.862-4.475C12.702,4.666,12.041,3.066,10.837,1.863z M11.427,6.36c0,1.358-0.526,2.633-1.483,3.589
				c-0.955,0.956-2.229,1.482-3.588,1.482c-1.358,0-2.633-0.526-3.589-1.482c-0.964-0.965-1.495-2.24-1.495-3.59
				c0-1.349,0.531-2.623,1.495-3.588c0.957-0.957,2.231-1.484,3.589-1.484c1.358,0,2.633,0.527,3.589,1.484
				C10.901,3.728,11.427,5.002,11.427,6.36z"/>
			<path d="M6.867,3C6.51,3,6.231,3.279,6.231,3.636v2.769H4.143c-0.356,0-0.636,0.279-0.636,0.636c0,0.355,0.279,0.635,0.636,0.635
				h2.724c0.357,0,0.637-0.279,0.637-0.635V3.636C7.503,3.279,7.224,3,6.867,3z"/>
		</g>
	</symbol>

	<symbol id="icon_mail" viewBox="0 0 16.554 14.046">
		<path d="M0,0v14.046h16.554V0H0z M15.054,1.5v1.358L8.277,7.375L1.5,2.858V1.5H15.054z M1.5,12.546V4.661l6.777,4.518l6.777-4.518
		v7.885H1.5z"/>
	</symbol>

	<symbol id="icon_search" viewBox="0 0 15.586 15.247">
		<path d="M15.293,13.54l-3.55-3.55c0.688-1.022,1.09-2.251,1.09-3.573C12.833,2.878,9.955,0,6.417,0S0,2.878,0,6.417
			s2.878,6.417,6.417,6.417c1.496,0,2.87-0.519,3.962-1.38l3.5,3.5c0.195,0.195,0.451,0.293,0.707,0.293s0.512-0.098,0.707-0.293
			C15.684,14.563,15.684,13.93,15.293,13.54z M2,6.417C2,3.981,3.981,2,6.417,2s4.417,1.981,4.417,4.417s-1.981,4.417-4.417,4.417
			S2,8.852,2,6.417z"/>
	</symbol>

	<symbol id="three_line" viewBox="0 0 70 6">
		<rect x="15" fill="#D01818" width="40" height="1.042"/>
		<rect x="39.917" y="4.958" fill="#D01818" width="30.083" height="1.042"/>
		<rect y="4.958" fill="#D01818" width="30.083" height="1.042"/>
	</symbol>






	<symbol id="ic_fb" viewBox="0 0 512 512">
			<path d="m75 512h167v-182h-60v-60h60v-75c0-41.355469 33.644531-75 75-75h75v60h-60c-16.542969 0-30 13.457031-30 30v60h87.292969l-10 60h-77.292969v182h135c41.355469 0 75-33.644531 75-75v-362c0-41.355469-33.644531-75-75-75h-362c-41.355469 0-75 33.644531-75 75v362c0 41.355469 33.644531 75 75 75zm-45-437c0-24.8125 20.1875-45 45-45h362c24.8125 0 45 20.1875 45 45v362c0 24.8125-20.1875 45-45 45h-105v-122h72.707031l20-120h-92.707031v-30h90v-120h-105c-57.898438 0-105 47.101562-105 105v45h-60v120h60v122h-137c-24.8125 0-45-20.1875-45-45zm0 0" />
	</symbol>

	<symbol id="ic_linkdin" viewBox="0 0 512 512">
			<path d="m437 0h-362c-41.355469 0-75 33.644531-75 75v362c0 41.355469 33.644531 75 75 75h362c41.355469 0 75-33.644531 75-75v-362c0-41.355469-33.644531-75-75-75zm45 437c0 24.8125-20.1875 45-45 45h-362c-24.8125 0-45-20.1875-45-45v-362c0-24.8125 20.1875-45 45-45h362c24.8125 0 45 20.1875 45 45zm0 0"/><path d="m91 422h90v-212h-90zm30-182h30v152h-30zm0 0"/><path d="m331.085938 210c-.027344 0-.058594 0-.085938 0-10.371094 0-20.472656 1.734375-30 5.101562v-5.101562h-90v212h90v-107c0-8.269531 6.730469-15 15-15s15 6.730469 15 15v107h90v-117.3125c0-48.546875-39.382812-94.640625-89.914062-94.6875zm59.914062 182h-30v-77c0-24.8125-20.1875-45-45-45s-44.996094 20.1875-45 44.996094v77.003906h-30v-152h30v30.019531l24.007812-18.03125c10.441407-7.84375 22.886719-11.988281 35.992188-11.988281h.058594c31.929687.03125 59.941406 30.257812 59.941406 64.6875zm0 0"/><path d="m91 180h90v-90h-90zm30-60h30v30h-30zm0 0"/>
	</symbol>

	<symbol id="ic_twitter" viewBox="0 -47 512.00004 512">
			<path d="m512 55.964844c-32.207031 1.484375-31.503906 1.363281-35.144531 1.667968l19.074219-54.472656s-59.539063 21.902344-74.632813 25.820313c-39.640625-35.628907-98.5625-37.203125-140.6875-11.3125-34.496094 21.207031-53.011719 57.625-46.835937 100.191406-67.136719-9.316406-123.703126-41.140625-168.363282-94.789063l-14.125-16.964843-10.554687 19.382812c-13.339844 24.492188-17.769531 52.496094-12.476563 78.851563 2.171875 10.8125 5.863282 21.125 10.976563 30.78125l-12.117188-4.695313-1.4375 20.246094c-1.457031 20.566406 5.390625 44.574219 18.320313 64.214844 3.640625 5.53125 8.328125 11.605469 14.269531 17.597656l-6.261719-.960937 7.640625 23.199218c10.042969 30.480469 30.902344 54.0625 57.972657 67.171875-27.035157 11.472657-48.875 18.792969-84.773438 30.601563l-32.84375 10.796875 30.335938 16.585937c11.566406 6.324219 52.4375 27.445313 92.820312 33.78125 89.765625 14.078125 190.832031 2.613282 258.871094-58.664062 57.308594-51.613282 76.113281-125.03125 72.207031-201.433594-.589844-11.566406 2.578125-22.605469 8.921875-31.078125 12.707031-16.964844 48.765625-66.40625 48.84375-66.519531zm-72.832031 48.550781c-10.535157 14.066406-15.8125 32.03125-14.867188 50.578125 3.941407 77.066406-17.027343 136.832031-62.328125 177.628906-52.917968 47.660156-138.273437 66.367188-234.171875 51.324219-17.367187-2.722656-35.316406-8.820313-50.171875-14.910156 30.097656-10.355469 53.339844-19.585938 90.875-37.351563l52.398438-24.800781-57.851563-3.703125c-27.710937-1.773438-50.785156-15.203125-64.96875-37.007812 7.53125-.4375 14.792969-1.65625 22.023438-3.671876l55.175781-15.367187-55.636719-13.625c-27.035156-6.621094-42.445312-22.796875-50.613281-35.203125-5.363281-8.152344-8.867188-16.503906-10.96875-24.203125 5.578125 1.496094 12.082031 2.5625 22.570312 3.601563l51.496094 5.09375-40.800781-31.828126c-29.398437-22.929687-41.179687-57.378906-32.542969-90.496093 91.75 95.164062 199.476563 88.011719 210.320313 90.527343-2.386719-23.183593-2.449219-23.238281-3.074219-25.445312-13.886719-49.089844 16.546875-74.015625 30.273438-82.453125 28.671874-17.621094 74.183593-20.277344 105.707031 8.753906 6.808593 6.265625 16.015625 8.730469 24.632812 6.589844 7.734375-1.921875 14.082031-3.957031 20.296875-6.171875l-12.9375 36.945312 16.515625.011719c-3.117187 4.179688-6.855469 9.183594-11.351562 15.183594zm0 0"/>
	</symbol>




</svg>